blueocean:1.19.0
workflow-aggregator:2.6
pipeline-stage-view:2.12
pipeline-utility-steps:2.3.0
docker-workflow:1.19
credentials-binding:1.20
git:3.12.1
git-parameter:0.9.11
email-ext:2.66
mailer:1.27
job-dsl:1.76
publish-over-ssh:1.20.1
